{
	"info": {
		"_postman_id": "f108e98c-ca7e-498a-b970-1ab0f95a881e",
		"name": "Amazon AWS - Progetto1 - development",
		"schema": "https://schema.getpostman.com/json/collection/v2.1.0/collection.json"
	},
	"item": [
		{
			"name": "GET photoalbum",
			"request": {
				"auth": {
					"type": "awsv4",
					"awsv4": [
						{
							"key": "region",
							"value": "eu-central-1",
							"type": "string"
						},
						{
							"key": "secretKey",
							"value": "j5f8GoJY1N0Nrk+M4cfCB/mg2IUOzpe7lqynwxOG",
							"type": "string"
						},
						{
							"key": "accessKey",
							"value": "AKIAJS6PHYT2S6FECJWQ",
							"type": "string"
						}
					]
				},
				"method": "GET",
				"header": [],
				"body": {},
				"url": {
					"raw": "https://eq8ffiz1yj.execute-api.eu-central-1.amazonaws.com/development/photoalbum",
					"protocol": "https",
					"host": [
						"eq8ffiz1yj",
						"execute-api",
						"eu-central-1",
						"amazonaws",
						"com"
					],
					"path": [
						"development",
						"photoalbum"
					]
				}
			},
			"response": []
		},
		{
			"name": "GET photoalbum per USERNAME",
			"request": {
				"auth": {
					"type": "awsv4",
					"awsv4": [
						{
							"key": "region",
							"value": "eu-central-1",
							"type": "string"
						},
						{
							"key": "secretKey",
							"value": "j5f8GoJY1N0Nrk+M4cfCB/mg2IUOzpe7lqynwxOG",
							"type": "string"
						},
						{
							"key": "accessKey",
							"value": "AKIAJS6PHYT2S6FECJWQ",
							"type": "string"
						}
					]
				},
				"method": "GET",
				"header": [],
				"body": {},
				"url": {
					"raw": "https://eq8ffiz1yj.execute-api.eu-central-1.amazonaws.com/development/photoalbum?username=utente_post",
					"protocol": "https",
					"host": [
						"eq8ffiz1yj",
						"execute-api",
						"eu-central-1",
						"amazonaws",
						"com"
					],
					"path": [
						"development",
						"photoalbum"
					],
					"query": [
						{
							"key": "username",
							"value": "utente_post"
						}
					]
				}
			},
			"response": []
		},
		{
			"name": "GET photoalbum/{id}",
			"request": {
				"auth": {
					"type": "awsv4",
					"awsv4": [
						{
							"key": "region",
							"value": "eu-central-1",
							"type": "string"
						},
						{
							"key": "secretKey",
							"value": "j5f8GoJY1N0Nrk+M4cfCB/mg2IUOzpe7lqynwxOG",
							"type": "string"
						},
						{
							"key": "accessKey",
							"value": "AKIAJS6PHYT2S6FECJWQ",
							"type": "string"
						}
					]
				},
				"method": "GET",
				"header": [],
				"body": {},
				"url": {
					"raw": "https://eq8ffiz1yj.execute-api.eu-central-1.amazonaws.com/development/photoalbum/2",
					"protocol": "https",
					"host": [
						"eq8ffiz1yj",
						"execute-api",
						"eu-central-1",
						"amazonaws",
						"com"
					],
					"path": [
						"development",
						"photoalbum",
						"2"
					]
				}
			},
			"response": []
		},
		{
			"name": "POST photoalbum",
			"request": {
				"auth": {
					"type": "awsv4",
					"awsv4": [
						{
							"key": "region",
							"value": "eu-central-1",
							"type": "string"
						},
						{
							"key": "secretKey",
							"value": "j5f8GoJY1N0Nrk+M4cfCB/mg2IUOzpe7lqynwxOG",
							"type": "string"
						},
						{
							"key": "accessKey",
							"value": "AKIAJS6PHYT2S6FECJWQ",
							"type": "string"
						}
					]
				},
				"method": "POST",
				"header": [
					{
						"key": "Content-Type",
						"value": "application/x-www-form-urlencoded",
						"disabled": true
					}
				],
				"body": {
					"mode": "formdata",
					"formdata": [
						{
							"key": "username",
							"value": "utente_post",
							"description": "",
							"type": "text"
						},
						{
							"key": "description",
							"value": "Foto di un koala",
							"description": "",
							"type": "text"
						},
						{
							"key": "photo",
							"description": "",
							"type": "file"
						}
					]
				},
				"url": {
					"raw": "https://eq8ffiz1yj.execute-api.eu-central-1.amazonaws.com/development/photoalbum",
					"protocol": "https",
					"host": [
						"eq8ffiz1yj",
						"execute-api",
						"eu-central-1",
						"amazonaws",
						"com"
					],
					"path": [
						"development",
						"photoalbum"
					]
				}
			},
			"response": []
		},
		{
			"name": "DELETE photoalbum/{id}",
			"request": {
				"auth": {
					"type": "awsv4",
					"awsv4": [
						{
							"key": "region",
							"value": "eu-central-1",
							"type": "string"
						},
						{
							"key": "secretKey",
							"value": "j5f8GoJY1N0Nrk+M4cfCB/mg2IUOzpe7lqynwxOG",
							"type": "string"
						},
						{
							"key": "accessKey",
							"value": "AKIAJS6PHYT2S6FECJWQ",
							"type": "string"
						}
					]
				},
				"method": "DELETE",
				"header": [],
				"body": {},
				"url": {
					"raw": "https://eq8ffiz1yj.execute-api.eu-central-1.amazonaws.com/development/photoalbum/5",
					"protocol": "https",
					"host": [
						"eq8ffiz1yj",
						"execute-api",
						"eu-central-1",
						"amazonaws",
						"com"
					],
					"path": [
						"development",
						"photoalbum",
						"5"
					]
				}
			},
			"response": []
		},
		{
			"name": "PUT photoalbum/{id}",
			"request": {
				"auth": {
					"type": "awsv4",
					"awsv4": [
						{
							"key": "region",
							"value": "eu-central-1",
							"type": "string"
						},
						{
							"key": "secretKey",
							"value": "j5f8GoJY1N0Nrk+M4cfCB/mg2IUOzpe7lqynwxOG",
							"type": "string"
						},
						{
							"key": "accessKey",
							"value": "AKIAJS6PHYT2S6FECJWQ",
							"type": "string"
						}
					]
				},
				"method": "PUT",
				"header": [
					{
						"key": "Content-Type",
						"value": "application/json"
					}
				],
				"body": {
					"mode": "formdata",
					"formdata": [
						{
							"key": "username",
							"value": "utente_put",
							"description": "",
							"type": "text"
						},
						{
							"key": "description",
							"value": "Descrizione aggiornata",
							"description": "",
							"type": "text"
						},
						{
							"key": "photo",
							"description": "",
							"type": "file"
						}
					]
				},
				"url": {
					"raw": "https://eq8ffiz1yj.execute-api.eu-central-1.amazonaws.com/development/photoalbum/4",
					"protocol": "https",
					"host": [
						"eq8ffiz1yj",
						"execute-api",
						"eu-central-1",
						"amazonaws",
						"com"
					],
					"path": [
						"development",
						"photoalbum",
						"4"
					]
				}
			},
			"response": []
		}
	],
	"auth": {
		"type": "awsv4",
		"awsv4": [
			{
				"key": "secretKey",
				"value": "j5f8GoJY1N0Nrk+M4cfCB/mg2IUOzpe7lqynwxOG",
				"type": "string"
			},
			{
				"key": "accessKey",
				"value": "AKIAJS6PHYT2S6FECJWQ",
				"type": "string"
			}
		]
	},
	"event": [
		{
			"listen": "prerequest",
			"script": {
				"id": "b1659abb-8e6a-4a44-b3c1-69f51b203ad8",
				"type": "text/javascript",
				"exec": [
					""
				]
			}
		},
		{
			"listen": "test",
			"script": {
				"id": "20173921-cc41-4cb0-b342-3bd9aa063152",
				"type": "text/javascript",
				"exec": [
					""
				]
			}
		}
	]
}